{
    "html_attributions": [],
    "next_page_token": "Aap_uECi4GCk_XnjZq7MZDZAB4CZfyAlsdjry-eQQewJDF2JovALuHlHQVon1Zhx28eUTbGsOumpG7Bva8G1RgaZZT2nmHqEBRD1F-LrVjsyUhqfw5PATEDfKb1lQbqEYvCHaFC9bf6csCqp_7w4fAsbWA3dLfQEy8oRIUIWudB6QiJUF0uxVOdEI42K8sovuK8xG1yWl7Ubh4sYrPaQUoOPEggU02XTEAX-6-O8zGZpUpfTwrhaUf3rp_MmqDO0m94ikGfGDFYejKsGmhTgvdXxIX7VyCUyPypn_CU3Hpl-G0owQrLJoaqVhwvKJ7A9A974z1nSQ8WxImqO3U7jd3Cbfc5s_v448oZoIdBMBUPw2AUaO4P_dumIbEvzqjbRijUpcXVDNgbisl0j2_1F242goFcmAqv-RyHOpmiKg4weGLDLsayeZXtqMgmuVrzcA_ao1aLHkC5WXoCtk9cuveZdrPsGvzgVRF5LenBLSle55Jus9hPLbO2VHezh_tjA6VgQ_r2-ZG6tVCz6k19L2Ku5Y6_oTSlE-ZdAjt86Iav0kc_K5wfkmGEL4iRkeXRpfENb222EohdSquSWYfq_5DWAsIBA2afbkixPX7crmkLLyWYwQcv2MA",
    "results": [
        {
            "business_status": "OPERATIONAL",
            "formatted_address": "1st Floor, Yashodhara Building, Opposite Yashwant Stadium, Dhantoli, Nagpur, Maharashtra 440012, India",
            "geometry": {
                "location": {
                    "lat": 21.141845,
                    "lng": 79.084277
                },
                "viewport": {
                    "northeast": {
                        "lat": 21.14319502989272,
                        "lng": 79.08562672989272
                    },
                    "southwest": {
                        "lat": 21.14049537010728,
                        "lng": 79.08292707010727
                    }
                }
            },
            "icon": "https://maps.gstatic.com/mapfiles/place_api/icons/v1/png_71/generic_business-71.png",
            "icon_background_color": "#7B9EB0",
            "icon_mask_base_uri": "https://maps.gstatic.com/mapfiles/place_api/icons/v2/generic_pinlet",
            "name": "Central Nursing Home,Dr Gurjalwar",
            "place_id": "ChIJAQAAAJXA1DsR6A7-urfMPS4",
            "plus_code": {
                "compound_code": "43RM+PP Nagpur, Maharashtra",
                "global_code": "7JHX43RM+PP"
            },
            "rating": 5,
            "reference": "ChIJAQAAAJXA1DsR6A7-urfMPS4",
            "types": [
                "health",
                "point_of_interest",
                "establishment"
            ],
            "user_ratings_total": 5
        },
        {
            "business_status": "OPERATIONAL",
            "formatted_address": "Plot No 156, Shree Mahalxmi nagar, New Narasala Road, near Sadguru tradears, Nagpur, Maharashtra 440034, India",
            "geometry": {
                "location": {
                    "lat": 21.1043949,
                    "lng": 79.12654739999999
                },
                "viewport": {
                    "northeast": {
                        "lat": 21.10571847989272,
                        "lng": 79.12785727989272
                    },
                    "southwest": {
                        "lat": 21.10301882010728,
                        "lng": 79.12515762010727
                    }
                }
            },
            "icon": "https://maps.gstatic.com/mapfiles/place_api/icons/v1/png_71/generic_business-71.png",
            "icon_background_color": "#7B9EB0",
            "icon_mask_base_uri": "https://maps.gstatic.com/mapfiles/place_api/icons/v2/generic_pinlet",
            "name": "Shrutiyog Nursing Home",
            "opening_hours": {
                "open_now": true
            },
            "photos": [
                {
                    "height": 390,
                    "html_attributions": [
                        "<a href=\"https://maps.google.com/maps/contrib/100405173841934717057\">A Google User</a>"
                    ],
                    "photo_reference": "Aap_uED077PgRgjRGKnmZt1CQI8CYDjqPk6IJuowWpL6gQenbLdQHBqs6kOO3CeHKtlIFbWxiWu7DV4oU386D_ZieaE4q47gFpHyUzGCoEY3n9pRe00SClu9IUJXVYTE9IEJwmpTTTiQRnZjffCVH8hoAjK6LgfqLOuYQRq3mJqbNC7UEDn-",
                    "width": 390
                }
            ],
            "place_id": "ChIJfd0WM7m41DsRWiWPYEquIpQ",
            "plus_code": {
                "compound_code": "443G+QJ Nagpur, Maharashtra",
                "global_code": "7JHX443G+QJ"
            },
            "rating": 3.7,
            "reference": "ChIJfd0WM7m41DsRWiWPYEquIpQ",
            "types": [
                "health",
                "point_of_interest",
                "establishment"
            ],
            "user_ratings_total": 3
        },
        {
            "business_status": "OPERATIONAL",
            "formatted_address": "101, Parmanand Apartment Kamptee Road Near, Indora, Chowk, Nagpur, Maharashtra 440017, India",
            "geometry": {
                "location": {
                    "lat": 21.1720493,
                    "lng": 79.0988883
                },
                "viewport": {
                    "northeast": {
                        "lat": 21.17341817989272,
                        "lng": 79.10023807989272
                    },
                    "southwest": {
                        "lat": 21.17071852010728,
                        "lng": 79.09753842010728
                    }
                }
            },
            "icon": "https://maps.gstatic.com/mapfiles/place_api/icons/v1/png_71/hospital-71.png",
            "icon_background_color": "#F88181",
            "icon_mask_base_uri": "https://maps.gstatic.com/mapfiles/place_api/icons/v2/hospital-H_pinlet",
            "name": "Harshal Maternity & Nursing Home",
            "opening_hours": {
                "open_now": true
            },
            "place_id": "ChIJnW6ufSjB1DsRu0YRxy1S0Fs",
            "plus_code": {
                "compound_code": "53CX+RH Nagpur, Maharashtra",
                "global_code": "7JHX53CX+RH"
            },
            "rating": 3.8,
            "reference": "ChIJnW6ufSjB1DsRu0YRxy1S0Fs",
            "types": [
                "hospital",
                "health",
                "point_of_interest",
                "establishment"
            ],
            "user_ratings_total": 4
        },
        {
            "business_status": "OPERATIONAL",
            "formatted_address": "Square, 274, Central Ave, Chapru Nagar, Queta Colony, Lakadganj, Nagpur, Maharashtra 440008, India",
            "geometry": {
                "location": {
                    "lat": 21.1487792,
                    "lng": 79.124381
                },
                "viewport": {
                    "northeast": {
                        "lat": 21.15002467989272,
                        "lng": 79.12572417989271
                    },
                    "southwest": {
                        "lat": 21.14732502010728,
                        "lng": 79.12302452010726
                    }
                }
            },
            "icon": "https://maps.gstatic.com/mapfiles/place_api/icons/v1/png_71/generic_business-71.png",
            "icon_background_color": "#7B9EB0",
            "icon_mask_base_uri": "https://maps.gstatic.com/mapfiles/place_api/icons/v2/generic_pinlet",
            "name": "Kimmatkar Nursing Home",
            "opening_hours": {
                "open_now": true
            },
            "photos": [
                {
                    "height": 1080,
                    "html_attributions": [
                        "<a href=\"https://maps.google.com/maps/contrib/118180304135156899466\">A Google User</a>"
                    ],
                    "photo_reference": "Aap_uEBGzlvn2XQtMfJPYh3lf10M6a7IYKGj8BUZenAiJgSMdCmfiwtWtsoHTSlR_K0KDog7H9xuKAVrS_8YaP2wM8DuSvink6tKWw5j28JL5zf-eflv_630mvLkAjyT8NitRG8SKGzPE7MEj1CVnMctQc0mfPMEf5tvI9_QRdIKH7fefsYF",
                    "width": 1920
                }
            ],
            "place_id": "ChIJ0bj4EcDA1DsRQabsF_73XY4",
            "plus_code": {
                "compound_code": "44XF+GQ Nagpur, Maharashtra",
                "global_code": "7JHX44XF+GQ"
            },
            "rating": 5,
            "reference": "ChIJ0bj4EcDA1DsRQabsF_73XY4",
            "types": [
                "health",
                "point_of_interest",
                "establishment"
            ],
            "user_ratings_total": 6
        },
        {
            "business_status": "OPERATIONAL",
            "formatted_address": "43MC+QXM, Ramdaspeth, Nagpur, Maharashtra 440010, India",
            "geometry": {
                "location": {
                    "lat": 21.1344534,
                    "lng": 79.07241429999999
                },
                "viewport": {
                    "northeast": {
                        "lat": 21.13580612989272,
                        "lng": 79.07379552989272
                    },
                    "southwest": {
                        "lat": 21.13310647010728,
                        "lng": 79.07109587010729
                    }
                }
            },
            "icon": "https://maps.gstatic.com/mapfiles/place_api/icons/v1/png_71/generic_business-71.png",
            "icon_background_color": "#7B9EB0",
            "icon_mask_base_uri": "https://maps.gstatic.com/mapfiles/place_api/icons/v2/generic_pinlet",
            "name": "DR.BHALERAO NURSING HOME",
            "photos": [
                {
                    "height": 3456,
                    "html_attributions": [
                        "<a href=\"https://maps.google.com/maps/contrib/105561814011597639802\">A Google User</a>"
                    ],
                    "photo_reference": "Aap_uEBBqacNL-6DFiBM9242Uc3eGDQYukgn8p6WMvv8o0uoAIMib7CQ043ksDWSfqvoJGF6koDYzzopNf4WW7KYFHP2E540XHAF2T9igGX4Nh1OB6fyhoF43PrMGIxNbD2b9RgyUAuhE4z7neLwlBKZRLGiuUXLiRltiX9rQwUSdGKNAaY_",
                    "width": 4608
                }
            ],
            "place_id": "ChIJTUIq6JHA1DsR_FphIxmdel0",
            "rating": 3.7,
            "reference": "ChIJTUIq6JHA1DsR_FphIxmdel0",
            "types": [
                "health",
                "point_of_interest",
                "establishment"
            ],
            "user_ratings_total": 7
        },
        {
            "business_status": "CLOSED_TEMPORARILY",
            "formatted_address": "Near Police Station, Sakkardara, Sakkardara, Nagpur, Maharashtra 440009, India",
            "geometry": {
                "location": {
                    "lat": 21.1458004,
                    "lng": 79.0881546
                },
                "viewport": {
                    "northeast": {
                        "lat": 21.14716237989272,
                        "lng": 79.08949017989272
                    },
                    "southwest": {
                        "lat": 21.14446272010727,
                        "lng": 79.08679052010727
                    }
                }
            },
            "icon": "https://maps.gstatic.com/mapfiles/place_api/icons/v1/png_71/generic_business-71.png",
            "icon_background_color": "#7B9EB0",
            "icon_mask_base_uri": "https://maps.gstatic.com/mapfiles/place_api/icons/v2/generic_pinlet",
            "name": "Matoshri Nursing Home",
            "permanently_closed": true,
            "place_id": "ChIJ0bj4EcDA1DsRf7ktVid_K50",
            "rating": 1,
            "reference": "ChIJ0bj4EcDA1DsRf7ktVid_K50",
            "types": [
                "health",
                "point_of_interest",
                "establishment"
            ],
            "user_ratings_total": 1
        },
        {
            "business_status": "OPERATIONAL",
            "formatted_address": "Byramji Town, Chhaoni Rd, Nagpur, Maharashtra 440013, India",
            "geometry": {
                "location": {
                    "lat": 21.1723422,
                    "lng": 79.0832576
                },
                "viewport": {
                    "northeast": {
                        "lat": 21.17366192989272,
                        "lng": 79.08467907989272
                    },
                    "southwest": {
                        "lat": 21.17096227010728,
                        "lng": 79.08197942010729
                    }
                }
            },
            "icon": "https://maps.gstatic.com/mapfiles/place_api/icons/v1/png_71/generic_business-71.png",
            "icon_background_color": "#7B9EB0",
            "icon_mask_base_uri": "https://maps.gstatic.com/mapfiles/place_api/icons/v2/generic_pinlet",
            "name": "Pioneer Nursing Home",
            "opening_hours": {
                "open_now": true
            },
            "photos": [
                {
                    "height": 2340,
                    "html_attributions": [
                        "<a href=\"https://maps.google.com/maps/contrib/104698202520253885560\">JUNAID KHAN</a>"
                    ],
                    "photo_reference": "Aap_uED2M5Jm5l6dXqXarIygwnh5TdcqHtTd3TqNE4RfNxhBlW9Cgq76O-ybCpRF89qdh2tug7Z7kpbtKxJFgwRwQ1qDbl3sXEmU6lu6QqD1LvBV-aVR6WBzIlrYB90McJPrYa_oJiNu6M9IbSnPnGIHR8P8PNXGOWslk9kjns3L1t3Ki68W",
                    "width": 4160
                }
            ],
            "place_id": "ChIJ0bj4EcDA1DsR_DilCEKkfCc",
            "plus_code": {
                "compound_code": "53CM+W8 Nagpur, Maharashtra",
                "global_code": "7JHX53CM+W8"
            },
            "rating": 4.5,
            "reference": "ChIJ0bj4EcDA1DsR_DilCEKkfCc",
            "types": [
                "health",
                "point_of_interest",
                "establishment"
            ],
            "user_ratings_total": 15
        },
        {
            "business_status": "OPERATIONAL",
            "formatted_address": "Datta Complex, Opposite Ordinance Factory Gate, Kanakdurga Co-Op Housing Society Limited, Duttawadi, Nagpur, Maharashtra 440023, India",
            "geometry": {
                "location": {
                    "lat": 21.151726,
                    "lng": 78.9969291
                },
                "viewport": {
                    "northeast": {
                        "lat": 21.15308102989272,
                        "lng": 78.99827552989272
                    },
                    "southwest": {
                        "lat": 21.15038137010728,
                        "lng": 78.99557587010727
                    }
                }
            },
            "icon": "https://maps.gstatic.com/mapfiles/place_api/icons/v1/png_71/generic_business-71.png",
            "icon_background_color": "#7B9EB0",
            "icon_mask_base_uri": "https://maps.gstatic.com/mapfiles/place_api/icons/v2/generic_pinlet",
            "name": "Sai Nursing Home",
            "place_id": "ChIJpSK6TY3q1DsRQ17UfdlzoaQ",
            "plus_code": {
                "compound_code": "5X2W+MQ Nagpur, Maharashtra",
                "global_code": "7JHW5X2W+MQ"
            },
            "rating": 0,
            "reference": "ChIJpSK6TY3q1DsRQ17UfdlzoaQ",
            "types": [
                "health",
                "point_of_interest",
                "establishment"
            ],
            "user_ratings_total": 0
        },
        {
            "business_status": "OPERATIONAL",
            "formatted_address": "44G3+CVF, Hanuman Nagar, Nagpur, Maharashtra 440003, India",
            "geometry": {
                "location": {
                    "lat": 21.1260524,
                    "lng": 79.10466409999999
                },
                "viewport": {
                    "northeast": {
                        "lat": 21.12745642989272,
                        "lng": 79.10596157989272
                    },
                    "southwest": {
                        "lat": 21.12475677010728,
                        "lng": 79.10326192010727
                    }
                }
            },
            "icon": "https://maps.gstatic.com/mapfiles/place_api/icons/v1/png_71/generic_business-71.png",
            "icon_background_color": "#7B9EB0",
            "icon_mask_base_uri": "https://maps.gstatic.com/mapfiles/place_api/icons/v2/generic_pinlet",
            "name": "Shrikhande Nursing Home",
            "opening_hours": {
                "open_now": true
            },
            "place_id": "ChIJAQAAMKnA1DsRMtO5wFGHJM8",
            "rating": 0,
            "reference": "ChIJAQAAMKnA1DsRMtO5wFGHJM8",
            "types": [
                "health",
                "point_of_interest",
                "establishment"
            ],
            "user_ratings_total": 0
        },
        {
            "business_status": "OPERATIONAL",
            "formatted_address": "Ridge Rd, Near ESI Chowk, Hanuman Nagar, Nagpur, Maharashtra 440009, India",
            "geometry": {
                "location": {
                    "lat": 21.1264461,
                    "lng": 79.1043184
                },
                "viewport": {
                    "northeast": {
                        "lat": 21.12785177989272,
                        "lng": 79.1056758298927
                    },
                    "southwest": {
                        "lat": 21.12515212010728,
                        "lng": 79.10297617010727
                    }
                }
            },
            "icon": "https://maps.gstatic.com/mapfiles/place_api/icons/v1/png_71/generic_business-71.png",
            "icon_background_color": "#7B9EB0",
            "icon_mask_base_uri": "https://maps.gstatic.com/mapfiles/place_api/icons/v2/generic_pinlet",
            "name": "Suhasini Nursing Home",
            "opening_hours": {
                "open_now": true
            },
            "place_id": "ChIJAQAAMKnA1DsRKVY-arKNn9w",
            "plus_code": {
                "compound_code": "44G3+HP Nagpur, Maharashtra",
                "global_code": "7JHX44G3+HP"
            },
            "rating": 4,
            "reference": "ChIJAQAAMKnA1DsRKVY-arKNn9w",
            "types": [
                "health",
                "point_of_interest",
                "establishment"
            ],
            "user_ratings_total": 2
        },
        {
            "business_status": "OPERATIONAL",
            "formatted_address": "Humpyard Rd, Dhantoli, Nagpur, Maharashtra 440012, India",
            "geometry": {
                "location": {
                    "lat": 21.1336131,
                    "lng": 79.0834957
                },
                "viewport": {
                    "northeast": {
                        "lat": 21.13494797989272,
                        "lng": 79.08489197989273
                    },
                    "southwest": {
                        "lat": 21.13224832010728,
                        "lng": 79.0821923201073
                    }
                }
            },
            "icon": "https://maps.gstatic.com/mapfiles/place_api/icons/v1/png_71/hospital-71.png",
            "icon_background_color": "#F88181",
            "icon_mask_base_uri": "https://maps.gstatic.com/mapfiles/place_api/icons/v2/hospital-H_pinlet",
            "name": "Pandit Maternity & Nursing Home",
            "opening_hours": {},
            "place_id": "ChIJeZ_w3pnA1DsRANGcLRl-XiM",
            "plus_code": {
                "compound_code": "43MM+C9 Nagpur, Maharashtra",
                "global_code": "7JHX43MM+C9"
            },
            "rating": 5,
            "reference": "ChIJeZ_w3pnA1DsRANGcLRl-XiM",
            "types": [
                "hospital",
                "health",
                "point_of_interest",
                "establishment"
            ],
            "user_ratings_total": 1
        },
        {
            "business_status": "OPERATIONAL",
            "formatted_address": "Vaishali Nagar Rd, Mehandi Bagh Rd, Vaishali Nagar, Corner, Nagpur, Maharashtra 440017, India",
            "geometry": {
                "location": {
                    "lat": 21.1690537,
                    "lng": 79.115776
                },
                "viewport": {
                    "northeast": {
                        "lat": 21.17040847989272,
                        "lng": 79.11709847989272
                    },
                    "southwest": {
                        "lat": 21.16770882010728,
                        "lng": 79.11439882010727
                    }
                }
            },
            "icon": "https://maps.gstatic.com/mapfiles/place_api/icons/v1/png_71/hospital-71.png",
            "icon_background_color": "#F88181",
            "icon_mask_base_uri": "https://maps.gstatic.com/mapfiles/place_api/icons/v2/hospital-H_pinlet",
            "name": "Aarogya Sampada Hospital And Nursing Home",
            "opening_hours": {},
            "photos": [
                {
                    "height": 3264,
                    "html_attributions": [
                        "<a href=\"https://maps.google.com/maps/contrib/102193547038938682791\">karthik</a>"
                    ],
                    "photo_reference": "Aap_uEDWenyAG-Iyer1Sa8QYWvlVl8uPmsFHrkUMe11ow3zF7UwcBNwTA6u5FGF5JWqLWBAWlBQZyTECHhNdFGotckt_Cnolf27VLUhpf8hANk7_W4sCocuqbuhgk7LA1k3_5t5_jM7INl2XV6BIkqWY5VyGMXuODhxh1PuOZzWPHrlxkmbm",
                    "width": 2448
                }
            ],
            "place_id": "ChIJGwN18ynH1DsRR7rmpDbC1eM",
            "plus_code": {
                "compound_code": "5498+J8 Nagpur, Maharashtra",
                "global_code": "7JHX5498+J8"
            },
            "rating": 3.7,
            "reference": "ChIJGwN18ynH1DsRR7rmpDbC1eM",
            "types": [
                "hospital",
                "health",
                "point_of_interest",
                "establishment"
            ],
            "user_ratings_total": 3
        },
        {
            "business_status": "OPERATIONAL",
            "formatted_address": "44MJ+JGH, Opp.Hanuman Mandir, Shrikrishna Nagar Square, Shrikrishna Nagar, Radhakishanpura, Nagpur, Maharashtra 440017, India",
            "geometry": {
                "location": {
                    "lat": 21.1340581,
                    "lng": 79.1313658
                },
                "viewport": {
                    "northeast": {
                        "lat": 21.13538552989272,
                        "lng": 79.13280152989272
                    },
                    "southwest": {
                        "lat": 21.13268587010728,
                        "lng": 79.13010187010728
                    }
                }
            },
            "icon": "https://maps.gstatic.com/mapfiles/place_api/icons/v1/png_71/generic_business-71.png",
            "icon_background_color": "#7B9EB0",
            "icon_mask_base_uri": "https://maps.gstatic.com/mapfiles/place_api/icons/v2/generic_pinlet",
            "name": "Balkote Nursing Home",
            "photos": [
                {
                    "height": 1920,
                    "html_attributions": [
                        "<a href=\"https://maps.google.com/maps/contrib/109105057656094421572\">LEARNER&#39;S POINT</a>"
                    ],
                    "photo_reference": "Aap_uEDIT_Fu2iaINSyNtTy4TP90E_jbQwOp1D34toa_fZOSBSJDP5yOrcMrvCPjAnixQSscTLigUQr4UsldOwvCsnN1XGBDVrkhah7X4BDV5Cn_IDjKMYRfVgByBUDuJbAjkQijyekQNq-zuqIY8bAIqG56sRffRTut92QFl1m5nX7wZPFt",
                    "width": 1080
                }
            ],
            "place_id": "ChIJvyD5bl3H1DsRdlhJ4Au_cuE",
            "rating": 4.2,
            "reference": "ChIJvyD5bl3H1DsRdlhJ4Au_cuE",
            "types": [
                "health",
                "point_of_interest",
                "establishment"
            ],
            "user_ratings_total": 11
        },
        {
            "business_status": "OPERATIONAL",
            "formatted_address": "Third Floor. Shri Swami Arcade,, Nanaji Shastri Marg, W High Ct Rd, Khare Town, Dharampeth, Nagpur, Maharashtra 440010, India",
            "geometry": {
                "location": {
                    "lat": 21.1389732,
                    "lng": 79.0605774
                },
                "viewport": {
                    "northeast": {
                        "lat": 21.14033182989272,
                        "lng": 79.06182062989271
                    },
                    "southwest": {
                        "lat": 21.13763217010728,
                        "lng": 79.05912097010727
                    }
                }
            },
            "icon": "https://maps.gstatic.com/mapfiles/place_api/icons/v1/png_71/generic_business-71.png",
            "icon_background_color": "#7B9EB0",
            "icon_mask_base_uri": "https://maps.gstatic.com/mapfiles/place_api/icons/v2/generic_pinlet",
            "name": "Surgicare Hospital and Nursing Home",
            "opening_hours": {
                "open_now": true
            },
            "photos": [
                {
                    "height": 2048,
                    "html_attributions": [
                        "<a href=\"https://maps.google.com/maps/contrib/107120885956270380737\">Surgicare Hospital and Nursing Home</a>"
                    ],
                    "photo_reference": "Aap_uECjQtmAFUjTGz93prnp6UUJ4HQzeFWAGI_ZNuzpWiLLtkNFQJWRLSIKSfixQzxntLouGhxus2_bBIjdsyLboJne5KL-r48bF9JBgXYQs62gYuTTJ7zXyVfj0jrJWGcwJ1QAEJmRAGEGBRW3LlQM41KC5-kgXEUHhigg_YIbfP6UbAY6",
                    "width": 1536
                }
            ],
            "place_id": "ChIJK3pEPmHA1DsR_J9SjwBamT0",
            "plus_code": {
                "compound_code": "43Q6+H6 Nagpur, Maharashtra",
                "global_code": "7JHX43Q6+H6"
            },
            "rating": 0,
            "reference": "ChIJK3pEPmHA1DsR_J9SjwBamT0",
            "types": [
                "health",
                "point_of_interest",
                "establishment"
            ],
            "user_ratings_total": 0
        },
        {
            "business_status": "OPERATIONAL",
            "formatted_address": "1st Floor, Mittal Complex, 9/E, Surya Nagar, Surya Nagar, Nagpur, Maharashtra 440035, India",
            "geometry": {
                "location": {
                    "lat": 21.1518495,
                    "lng": 79.14920719999999
                },
                "viewport": {
                    "northeast": {
                        "lat": 21.15316092989272,
                        "lng": 79.15055547989272
                    },
                    "southwest": {
                        "lat": 21.15046127010728,
                        "lng": 79.14785582010728
                    }
                }
            },
            "icon": "https://maps.gstatic.com/mapfiles/place_api/icons/v1/png_71/generic_business-71.png",
            "icon_background_color": "#7B9EB0",
            "icon_mask_base_uri": "https://maps.gstatic.com/mapfiles/place_api/icons/v2/generic_pinlet",
            "name": "Tikhile Maternity & Nursing Home",
            "photos": [
                {
                    "height": 2592,
                    "html_attributions": [
                        "<a href=\"https://maps.google.com/maps/contrib/108502256106446009706\">Khem Varma</a>"
                    ],
                    "photo_reference": "Aap_uED6awXRv69fJlRdy4Hnn8td8tAl_3IjagfPUV86vi9rKEmmssZLo_GI46D2uNF9Vl-5nbFA0fzhd_CnaR_HghBhzzjSvSD_byLXnLe0kyyd49Q459M3kiEch24cFwHKsM84dPZY5cpTu60EzaGzFUZjZoRHAGkWDQkUV1ZstcaZaIqC",
                    "width": 4608
                }
            ],
            "place_id": "ChIJq6qqfgzH1DsR8CTBixQgDDQ",
            "plus_code": {
                "compound_code": "542X+PM Nagpur, Maharashtra",
                "global_code": "7JHX542X+PM"
            },
            "rating": 3.8,
            "reference": "ChIJq6qqfgzH1DsR8CTBixQgDDQ",
            "types": [
                "health",
                "point_of_interest",
                "establishment"
            ],
            "user_ratings_total": 5
        },
        {
            "business_status": "OPERATIONAL",
            "formatted_address": "Manewada Rd, Near Shahu Garden Convent, Mahalaxmi Nagar, Ambika Nagar, Rameshwari, Nagpur, Maharashtra 440024, India",
            "geometry": {
                "location": {
                    "lat": 21.1080506,
                    "lng": 79.1035394
                },
                "viewport": {
                    "northeast": {
                        "lat": 21.10941047989272,
                        "lng": 79.10484447989273
                    },
                    "southwest": {
                        "lat": 21.10671082010728,
                        "lng": 79.1021448201073
                    }
                }
            },
            "icon": "https://maps.gstatic.com/mapfiles/place_api/icons/v1/png_71/generic_business-71.png",
            "icon_background_color": "#7B9EB0",
            "icon_mask_base_uri": "https://maps.gstatic.com/mapfiles/place_api/icons/v2/generic_pinlet",
            "name": "Chauhan Nursing Home",
            "opening_hours": {
                "open_now": true
            },
            "place_id": "ChIJpXNFfE6_1DsREfsrDjA8pNo",
            "plus_code": {
                "compound_code": "4453+6C Nagpur, Maharashtra",
                "global_code": "7JHX4453+6C"
            },
            "rating": 4.4,
            "reference": "ChIJpXNFfE6_1DsREfsrDjA8pNo",
            "types": [
                "health",
                "point_of_interest",
                "establishment"
            ],
            "user_ratings_total": 7
        },
        {
            "business_status": "CLOSED_TEMPORARILY",
            "formatted_address": "Sitabuldi, B/H Moonlight Studio, Sitabuildi, Sitabuildi, Nagpur, Maharashtra 440012, India",
            "geometry": {
                "location": {
                    "lat": 21.1440052,
                    "lng": 79.0835704
                },
                "viewport": {
                    "northeast": {
                        "lat": 21.14536627989272,
                        "lng": 79.08496627989273
                    },
                    "southwest": {
                        "lat": 21.14266662010728,
                        "lng": 79.08226662010729
                    }
                }
            },
            "icon": "https://maps.gstatic.com/mapfiles/place_api/icons/v1/png_71/generic_business-71.png",
            "icon_background_color": "#7B9EB0",
            "icon_mask_base_uri": "https://maps.gstatic.com/mapfiles/place_api/icons/v2/generic_pinlet",
            "name": "Geet Laxmi Maternity Nursing Home",
            "permanently_closed": true,
            "place_id": "ChIJVVVVxZTA1DsRFQ_jWIAQxgk",
            "rating": 0,
            "reference": "ChIJVVVVxZTA1DsRFQ_jWIAQxgk",
            "types": [
                "health",
                "point_of_interest",
                "establishment"
            ],
            "user_ratings_total": 0
        },
        {
            "business_status": "OPERATIONAL",
            "formatted_address": "Kamal Tower, Kamal Tower, G 22/23,, G 22/23, Kamptee Rd, Beside INOX Tuli Mall, Indora Square, New Indora, Nagpur, Maharashtra 440017, India",
            "geometry": {
                "location": {
                    "lat": 21.173268,
                    "lng": 79.10076549999999
                },
                "viewport": {
                    "northeast": {
                        "lat": 21.17474342989272,
                        "lng": 79.10201932989271
                    },
                    "southwest": {
                        "lat": 21.17204377010728,
                        "lng": 79.09931967010726
                    }
                }
            },
            "icon": "https://maps.gstatic.com/mapfiles/place_api/icons/v1/png_71/generic_business-71.png",
            "icon_background_color": "#7B9EB0",
            "icon_mask_base_uri": "https://maps.gstatic.com/mapfiles/place_api/icons/v2/generic_pinlet",
            "name": "Mukharji Nursing Home And Research Centre",
            "opening_hours": {
                "open_now": true
            },
            "place_id": "ChIJs4Ve5CjB1DsRsPksnlNxm2A",
            "plus_code": {
                "compound_code": "54F2+88 Nagpur, Maharashtra",
                "global_code": "7JHX54F2+88"
            },
            "rating": 3.1,
            "reference": "ChIJs4Ve5CjB1DsRsPksnlNxm2A",
            "types": [
                "health",
                "point_of_interest",
                "establishment"
            ],
            "user_ratings_total": 8
        },
        {
            "business_status": "OPERATIONAL",
            "formatted_address": "43JW+RW2, Rajabaksha Medical Square, Rambagh Layout, Rambagh, Nagpur, Maharashtra 440009, India",
            "geometry": {
                "location": {
                    "lat": 21.1320222,
                    "lng": 79.0972716
                },
                "viewport": {
                    "northeast": {
                        "lat": 21.13330142989272,
                        "lng": 79.09861007989272
                    },
                    "southwest": {
                        "lat": 21.13060177010728,
                        "lng": 79.09591042010729
                    }
                }
            },
            "icon": "https://maps.gstatic.com/mapfiles/place_api/icons/v1/png_71/generic_business-71.png",
            "icon_background_color": "#7B9EB0",
            "icon_mask_base_uri": "https://maps.gstatic.com/mapfiles/place_api/icons/v2/generic_pinlet",
            "name": "Bansode Nursing Home",
            "opening_hours": {
                "open_now": true
            },
            "photos": [
                {
                    "height": 1080,
                    "html_attributions": [
                        "<a href=\"https://maps.google.com/maps/contrib/113960143854224466755\">pranay sundarkar</a>"
                    ],
                    "photo_reference": "Aap_uECE1k4pfXHP0Kdx_Dr1jhuzRjOU38kr6JLN-CdRFk2laGq4tylD2d4uVMitEJ89poxUr6N3RH6MO3q0dDvqrfaMuCbg_EMuXLnLTEGswvS_FNV1NOg6sYJKIYt348uT9RVmvYi8VrJNHOw5xCEd6tf6tO8lzyKrjfI7-g_opfGNUlNw",
                    "width": 1920
                }
            ],
            "place_id": "ChIJcy2Wa6XA1DsRfszvk0IsSXA",
            "rating": 2.4,
            "reference": "ChIJcy2Wa6XA1DsRfszvk0IsSXA",
            "types": [
                "hospital",
                "health",
                "point_of_interest",
                "establishment"
            ],
            "user_ratings_total": 5
        },
        {
            "business_status": "OPERATIONAL",
            "formatted_address": "435H+Q7G, Ujjwal Society, Shree Nagar, Nagpur, Maharashtra 440015, India",
            "geometry": {
                "location": {
                    "lat": 21.1094443,
                    "lng": 79.0782031
                },
                "viewport": {
                    "northeast": {
                        "lat": 21.11074462989272,
                        "lng": 79.07952417989273
                    },
                    "southwest": {
                        "lat": 21.10804497010727,
                        "lng": 79.07682452010728
                    }
                }
            },
            "icon": "https://maps.gstatic.com/mapfiles/place_api/icons/v1/png_71/generic_business-71.png",
            "icon_background_color": "#7B9EB0",
            "icon_mask_base_uri": "https://maps.gstatic.com/mapfiles/place_api/icons/v2/generic_pinlet",
            "name": "Ambore Nursing Home",
            "place_id": "ChIJx4wLfGW_1DsRcXtTdTBvFmI",
            "rating": 4.7,
            "reference": "ChIJx4wLfGW_1DsRcXtTdTBvFmI",
            "types": [
                "health",
                "point_of_interest",
                "establishment"
            ],
            "user_ratings_total": 3
        }
    ],
    "status": "OK"
}